{
  "metadata": {
    "total_items": 3,
    "items_per_page": 2,
    "count": 2,
    "current_page": 1,
    "last_page": 2
  },
  "items": [
    {
      "name": "Team1",
      "uuid": "11111111-1111-1111-1111-111111111111",
      "members_count": 1,
      "creator": "Creator A."
    },
    {
      "name": "Team2",
      "uuid": "22222222-2222-2222-2222-222222222222",
      "members_count": 42,
      "creator": "Creator B."
    }
  ]
}
